exercises/ex-2/partB/transcript
# vsim -c -coverage alu_tb -do "run 1000ns; coverage report -memory -cvg -details -file coverage_rep.txt;exit" 
# Start time: 15:45:09 on Mar 03,2025
# ** Note: (vsim-3812) Design is being optimized...
# //  Questa Sim
# //  Version 2021.4_2 linux Dec  4 2021
# //
# //  Copyright 1991-2021 Mentor Graphics Corporation
# //  All Rights Reserved.
# //
# //  QuestaSim and its associated documentation contain trade
# //  secrets and commercial or financial information that are the property of
# //  Mentor Graphics Corporation and are privileged, confidential,
# //  and exempt from disclosure under the Freedom of Information Act,
# //  5 U.S.C. Section 552. Furthermore, this information
# //  is prohibited from disclosure under the Trade Secrets Act,
# //  18 U.S.C. Section 1905.
# //
# Loading sv_std.std
# Loading work.alu_tb_sv_unit(fast)
# Loading work.alu_tb(fast)
# Loading std.standard
# Loading std.textio(body)
# Loading ieee.std_logic_1164(body)
# Loading ieee.numeric_std(body)
# Loading work.alu(behavioral)#1
# run 1000ns
#         10  clk=1 a=00000000 b=00000000 op=000 r=00000000
#         30  clk=1 a=01110000 b=11100110 op=100 r=00000000
#         50  clk=1 a=01101110 b=11000010 op=011 r=00001001
#         70  clk=1 a=01110010 b=10000110 op=011 r=10111101
#         90  clk=1 a=01101110 b=01110110 op=110 r=11111101
#        110  clk=1 a=01111111 b=11111010 op=110 r=01111110
#        130  clk=1 a=01110100 b=10111110 op=101 r=11111111
#        150  clk=1 a=01111011 b=01110001 op=111 r=00110100
#        170  clk=1 a=01111000 b=01111001 op=111 r=00001010
#        190  clk=1 a=01110101 b=01100101 op=101 r=00000001
#        210  clk=1 a=01101010 b=01100100 op=101 r=01100101
#        230  clk=1 a=01101010 b=10110001 op=111 r=01100000
#        250  clk=1 a=01110000 b=11010100 op=100 r=11011011
#        270  clk=1 a=01111000 b=11111010 op=101 r=00001011
#        290  clk=1 a=01111111 b=10100001 op=010 r=01111000
#        310  clk=1 a=01111100 b=11100001 op=111 r=10000000
#        330  clk=1 a=01100111 b=11001100 op=111 r=10011101
#        350  clk=1 a=01111110 b=10011110 op=010 r=10101011
#        370  clk=1 a=01101101 b=11101010 op=111 r=10000001
#        390  clk=1 a=01111111 b=10100100 op=010 r=10000111
#        410  clk=1 a=01111111 b=11100011 op=000 r=10000000
#        430  clk=1 a=01111010 b=11101101 op=111 r=01100010
#        450  clk=1 a=01111100 b=11111010 op=011 r=10010111
#        470  clk=1 a=01100110 b=11010010 op=101 r=10000111
#        490  clk=1 a=01110000 b=10100101 op=100 r=01000010
#        510  clk=1 a=01100111 b=10100100 op=001 r=00001010
#        530  clk=1 a=01111001 b=11010000 op=011 r=11000011
#        550  clk=1 a=01111010 b=11010100 op=101 r=10101111
#        570  clk=1 a=01110001 b=11101010 op=101 r=01010000
#        590  clk=1 a=01101010 b=01111100 op=101 r=01100000
#        610  clk=1 a=01111011 b=11110100 op=111 r=01101000
#        630  clk=1 a=01100111 b=11110111 op=010 r=10001111
#        650  clk=1 a=01111011 b=01100111 op=000 r=10011000
#        670  clk=1 a=01111000 b=11100101 op=100 r=11100010
#        690  clk=1 a=01110001 b=11101100 op=010 r=00000010
#        710  clk=1 a=01101111 b=11000011 op=000 r=10001110
#        730  clk=1 a=01101001 b=11011000 op=010 r=00110010
#        750  clk=1 a=01101001 b=10110000 op=010 r=10010110
#        770  clk=1 a=01101111 b=11110011 op=111 r=10010110
#        790  clk=1 a=01110001 b=11001001 op=010 r=10011100
#        810  clk=1 a=01111000 b=11010101 op=111 r=10001110
#        830  clk=1 a=01110000 b=11101111 op=010 r=10101101
#        850  clk=1 a=01101101 b=10010000 op=011 r=10001111
#        870  clk=1 a=01100111 b=11101010 op=110 r=11111111
#        890  clk=1 a=01101010 b=10010110 op=010 r=11101111
#        910  clk=1 a=01111000 b=11011101 op=001 r=10010101
#        930  clk=1 a=01110101 b=11011100 op=001 r=10011011
#        950  clk=1 a=01110110 b=11100100 op=111 r=10011001
#        970  clk=1 a=01101110 b=11001100 op=100 r=10010010
#        990  clk=1 a=01110111 b=01111100 op=110 r=00010001
#  coverage report -memory -cvg -details -file coverage_rep.txt
# ** Warning: (vsim-19053) Option '-file' has been deprecated. Please use option '-output' instead.
# exit
# End time: 15:45:13 on Mar 03,2025, Elapsed time: 0:00:04
# Errors: 0, Warnings: 1
