ex-1/lab4/test_counter_check2.log
# vsim -assertdebug -coverage -c test_counter -l test_counter_check2.log -do " run -all; quit" 
# Start time: 16:12:47 on Feb 03,2025
# ** Note: (vsim-3812) Design is being optimized...
# //  Questa Sim
# //  Version 2021.4_2 linux Dec  4 2021
# //
# //  Copyright 1991-2021 Mentor Graphics Corporation
# //  All Rights Reserved.
# //
# //  QuestaSim and its associated documentation contain trade
# //  secrets and commercial or financial information that are the property of
# //  Mentor Graphics Corporation and are privileged, confidential,
# //  and exempt from disclosure under the Freedom of Information Act,
# //  5 U.S.C. Section 552. Furthermore, this information
# //  is prohibited from disclosure under the Trade Secrets Act,
# //  18 U.S.C. Section 1905.
# //
# Loading sv_std.std
# Loading work.test_counter(fast)
# ** Warning: (vsim-8492) The -assertdebug option was specified but there are no accessible objects.
# ** Warning: (vsim-8634) Code was not compiled with coverage options.
#  run -all
#          5  rst_=1 clk=1 count_enb=0 ld_cnt_=1 updn_cnt=1 DIN=x DOUT=x
#         15  rst_=0 clk=1 count_enb=0 ld_cnt_=1 updn_cnt=1 DIN=x DOUT=0
#         25  rst_=0 clk=1 count_enb=0 ld_cnt_=1 updn_cnt=1 DIN=x DOUT=0
#         35  rst_=1 clk=1 count_enb=0 ld_cnt_=1 updn_cnt=1 DIN=x DOUT=0
#         45  rst_=1 clk=1 count_enb=0 ld_cnt_=0 updn_cnt=1 DIN=0 DOUT=1
#         45  		COUNTER HOLD CHECK FAIL:: counter HOLD 
# 
#         55  rst_=1 clk=1 count_enb=0 ld_cnt_=0 updn_cnt=1 DIN=0 DOUT=0
#         65  rst_=1 clk=1 count_enb=0 ld_cnt_=0 updn_cnt=1 DIN=100 DOUT=0
#         75  rst_=1 clk=1 count_enb=1 ld_cnt_=1 updn_cnt=1 DIN=100 DOUT=100
#         85  rst_=1 clk=1 count_enb=1 ld_cnt_=1 updn_cnt=1 DIN=100 DOUT=101
#         95  rst_=1 clk=1 count_enb=1 ld_cnt_=1 updn_cnt=1 DIN=100 DOUT=102
#        105  rst_=1 clk=1 count_enb=1 ld_cnt_=1 updn_cnt=1 DIN=100 DOUT=103
#        115  rst_=1 clk=1 count_enb=1 ld_cnt_=1 updn_cnt=1 DIN=100 DOUT=104
#        125  rst_=1 clk=1 count_enb=1 ld_cnt_=1 updn_cnt=1 DIN=100 DOUT=105
#        135  rst_=1 clk=1 count_enb=1 ld_cnt_=1 updn_cnt=1 DIN=100 DOUT=106
#        145  rst_=1 clk=1 count_enb=1 ld_cnt_=1 updn_cnt=1 DIN=100 DOUT=107
#        155  rst_=1 clk=1 count_enb=1 ld_cnt_=1 updn_cnt=1 DIN=100 DOUT=108
#        165  rst_=1 clk=1 count_enb=1 ld_cnt_=1 updn_cnt=1 DIN=100 DOUT=109
#        175  rst_=1 clk=1 count_enb=0 ld_cnt_=1 updn_cnt=1 DIN=100 DOUT=110
#        185  rst_=1 clk=1 count_enb=0 ld_cnt_=1 updn_cnt=1 DIN=100 DOUT=111
#        185  		COUNTER HOLD CHECK FAIL:: counter HOLD 
# 
#        195  rst_=1 clk=1 count_enb=0 ld_cnt_=0 updn_cnt=1 DIN=100 DOUT=112
#        195  		COUNTER HOLD CHECK FAIL:: counter HOLD 
# 
#        205  rst_=1 clk=1 count_enb=1 ld_cnt_=1 updn_cnt=0 DIN=100 DOUT=100
#        215  rst_=1 clk=1 count_enb=1 ld_cnt_=1 updn_cnt=0 DIN=100 DOUT=99
#        225  rst_=1 clk=1 count_enb=1 ld_cnt_=1 updn_cnt=0 DIN=100 DOUT=98
#        235  rst_=1 clk=1 count_enb=1 ld_cnt_=1 updn_cnt=0 DIN=100 DOUT=97
#        245  rst_=1 clk=1 count_enb=1 ld_cnt_=1 updn_cnt=0 DIN=100 DOUT=96
#        255  rst_=1 clk=1 count_enb=1 ld_cnt_=1 updn_cnt=0 DIN=100 DOUT=95
#        265  rst_=1 clk=1 count_enb=1 ld_cnt_=1 updn_cnt=0 DIN=100 DOUT=94
#        275  rst_=1 clk=1 count_enb=1 ld_cnt_=1 updn_cnt=0 DIN=100 DOUT=93
#        285  rst_=1 clk=1 count_enb=1 ld_cnt_=1 updn_cnt=0 DIN=100 DOUT=92
#        295  rst_=1 clk=1 count_enb=1 ld_cnt_=1 updn_cnt=0 DIN=100 DOUT=91
#        305  rst_=1 clk=1 count_enb=0 ld_cnt_=1 updn_cnt=0 DIN=100 DOUT=90
#        315  rst_=1 clk=1 count_enb=0 ld_cnt_=1 updn_cnt=0 DIN=100 DOUT=89
#        315  		COUNTER HOLD CHECK FAIL:: counter HOLD 
# 
#        325  rst_=1 clk=1 count_enb=0 ld_cnt_=1 updn_cnt=0 DIN=100 DOUT=88
# ** Note: Data structure takes 4748636 bytes of memory
#          Process time 0.01 seconds
#          $finish    : test_counter.sv(29)
#    Time: 325 ns  Iteration: 1  Instance: /test_counter
# End time: 16:12:52 on Feb 03,2025, Elapsed time: 0:00:05
# Errors: 0, Warnings: 2
